Apendix:code - Erikaaa's website
…
# get all resources for this package
resources <- list_package_resources("64b54586-6180-4485-83eb-81e8fae3b8fe")

# identify datastore resources; by default, Toronto Open Data sets datastore resource format to CSV for non-geospatial and GeoJSON for geospatial resources
datastore_resources <- filter(resources, tolower(format) %in% c('csv', 'geojson'))

# load the first datastore resource as a sample
data <- filter(datastore_resources, row_number()==1) %>% get_resource()
data

## # A tibble: 17,872 x 18
##     `_id` Assigned_ID `Outbreak Assoc… `Age Group` `Neighbourhood … FSA  
##     <int>       <int> <chr>            <chr>       <chr>            <chr>
##  1 143647           1 Sporadic         50 to 59 Y… Willowdale East  M2N  
##  2 143648           2 Sporadic         50 to 59 Y… Willowdale East  M2N  
##  3 143649           3 Sporadic         20 to 29 Y… Parkwoods-Donal… M3A  
##  4 143650           4 Sporadic         60 to 69 Y… Church-Yonge Co… M4W  
##  5 143651           5 Sporadic         60 to 69 Y… Church-Yonge Co… M4W  
##  6 143652           6 Sporadic         50 to 59 Y… Newtonbrook West M2R  
##  7 143653           7 Sporadic         80 to 89 Y… Milliken         M1V  
##  8 143654           8 Sporadic         60 to 69 Y… Willowdale West  M2N  
##  9 143655           9 Sporadic         50 to 59 Y… Willowdale East  M2N  
## 10 143656          10 Sporadic         60 to 69 Y… Henry Farm       M2J  
## # … with 17,862 more rows, and 12 more variables: `Source of Infection` <chr>,
## #   Classification <chr>, `Episode Date` <chr>, `Reported Date` <chr>, `Client
## #   Gender` <chr>, Outcome <chr>, `Currently Hospitalized` <chr>, `Currently in
## #   ICU` <chr>, `Currently Intubated` <chr>, `Ever Hospitalized` <chr>, `Ever
## #   in ICU` <chr>, `Ever Intubated` <chr>
…
data3 %>% group_by(`Neighbourhood Name`) %>% 
  summarise(prob = mean(`Outbreak Associated` == "Outbreak Associated"))

## `summarise()` ungrouping output (override with `.groups` argument)

## # A tibble: 141 x 2
##    `Neighbourhood Name`          prob
##    <chr>                        <dbl>
##  1 Agincourt North              0.2  
##  2 Agincourt South-Malvern West 0.154
##  3 Alderwood                    0.245
##  4 Annex                        0.208
##  5 Banbury-Don Mills            0.143
##  6 Bathurst Manor               0.336
##  7 Bay Street Corridor          0.123
##  8 Bayview Village              0.122
##  9 Bayview Woods-Steeles        0.792
## 10 Bedford Park-Nortown         0.258
## # … with 131 more rows
…
